%YAML 1.1
%TAG !u! tag:unity3d.com,2011:
--- !u!114 &11400000
MonoBehaviour:
  m_ObjectHideFlags: 0
  m_CorrespondingSourceObject: {fileID: 0}
  m_PrefabInstance: {fileID: 0}
  m_PrefabAsset: {fileID: 0}
  m_GameObject: {fileID: 0}
  m_Enabled: 1
  m_EditorHideFlags: 0
  m_Script: {fileID: 11500000, guid: 38366e1f5404bfa4c8a2feef3720df13, type: 3}
  m_Name: 14A28998-A88E-44F0-A1F5-7E49F12BC4D5
  m_EditorClassIdentifier: 
  objectName: Stop_InsideRain
  id: 3141500806
  guid: 14A28998-A88E-44F0-A1F5-7E49F12BC4D5
