%YAML 1.1
%TAG !u! tag:unity3d.com,2011:
--- !u!114 &11400000
MonoBehaviour:
  m_ObjectHideFlags: 0
  m_CorrespondingSourceObject: {fileID: 0}
  m_PrefabInstance: {fileID: 0}
  m_PrefabAsset: {fileID: 0}
  m_GameObject: {fileID: 0}
  m_Enabled: 1
  m_EditorHideFlags: 0
  m_Script: {fileID: 11500000, guid: 38366e1f5404bfa4c8a2feef3720df13, type: 3}
  m_Name: 5659EBB5-4B11-40B0-B966-F094B5212F31
  m_EditorClassIdentifier: 
  objectName: setState
  id: 293623666
  guid: 5659EBB5-4B11-40B0-B966-F094B5212F31
